TEFAS Fund Data Exploratory Data Analysis
…
Unique number of funds by types

df_all %>% group_by(fund_type)%>%  distinct(code) %>% summarise(count=n())

## # A tibble: 2 x 2
##   fund_type count
##   <chr>     <int>
## 1 mutual      516
## 2 pension     404

Unique number of funds by types and categories

df_all %>% group_by(fund_type, category)%>%  distinct(code) %>% summarise(count=n())%>%arrange(desc(count))

## # A tibble: 31 x 3
## # Groups:   fund_type [2]
##    fund_type category                      count
##    <chr>     <chr>                         <int>
##  1 mutual    Hedge Umbrella Fund             231
##  2 pension   Variable Fund                   166
##  3 mutual    Debt Securities Umbrella Fund    70
##  4 mutual    Variable Umbrella Fund           67
##  5 mutual    Stock Umbrella Fund              62
##  6 mutual    Participation Umbrella Fund      30
##  7 pension   Stock Fund                       28
##  8 mutual    Money Market Umbrella Fund       25
##  9 pension   Debt Instruments Fund            25
## 10 mutual    Fund Of Funds Umbrella Fund      17
## # ... with 21 more rows

Date coverage of data: max length of our data set is 1834 days with 1262 data points. No fund data during weekends and official holidays.

df_all %>% distinct(date) %>% summarise(count=n(), latest=max(date), earliest=min(date), length=max(date)-min(date))

## # A tibble: 1 x 4
##   count latest              earliest            length   
##   <int> <dttm>              <dttm>              <drtn>   
## 1  1262 2020-11-16 00:00:00 2015-11-09 00:00:00 1834 days

total number of data points and date coverage for each fund. Some funds have huge gaps in their data. Ratio of data points to length of time is as low as 25% for some funds while majority of funds it is over 65%. almost all of the funds with data irregularities are Hedge Umberella Funds

df_all %>% group_by(code, fund_type,category) %>% summarise(count=n(), latest=max(date), earliest=min(date), length=as.integer(max(date)-min(date))) %>% mutate(coverage=count/length)%>%arrange((coverage))

## # A tibble: 920 x 8
## # Groups:   code, fund_type [920]
##    code  fund_type category count latest              earliest            length
##    <chr> <chr>     <chr>    <int> <dttm>              <dttm>               <int>
##  1 USY   mutual    Hedge U~   462 2020-11-16 00:00:00 2015-12-01 00:00:00   1812
##  2 IPF   mutual    Hedge U~   466 2020-11-16 00:00:00 2015-12-01 00:00:00   1812
##  3 IPP   mutual    Hedge U~   466 2020-11-16 00:00:00 2015-12-01 00:00:00   1812
##  4 OSH   mutual    Hedge U~   466 2020-11-16 00:00:00 2015-12-01 00:00:00   1812
##  5 CTV   mutual    Hedge U~    34 2020-11-16 00:00:00 2020-07-09 00:00:00    130
##  6 TDB   mutual    Hedge U~   481 2020-11-16 00:00:00 2015-11-30 00:00:00   1813
##  7 IAF   mutual    Hedge U~   489 2020-11-16 00:00:00 2015-12-01 00:00:00   1812
##  8 TPP   mutual    Hedge U~   461 2020-11-16 00:00:00 2016-05-02 00:00:00   1659
##  9 YKS   mutual    Hedge U~   513 2020-11-16 00:00:00 2015-11-17 00:00:00   1826
## 10 YPF   mutual    Hedge U~   507 2020-11-16 00:00:00 2016-02-01 00:00:00   1750
## # ... with 910 more rows, and 1 more variable: coverage <dbl>
…
## # A tibble: 6 x 2
##   length_years countcuts
##          <int>     <int>
## 1            0       107
## 2            1        61
## 3            2       171
## 4            3        72
## 5            4        58
## 6            5       451

447 funds have at least 5 calendar years of data coverage(starting from 2015-11-16 or earlier)

df_all %>% group_by(code, fund_type) %>% summarise(count=n(), latest=max(date), earliest=min(date), length=max(date)-min(date))%>%arrange(desc(earliest)) %>% filter(earliest<=ymd("2015-11-16"))

## # A tibble: 447 x 6
## # Groups:   code [447]
##    code  fund_type count latest              earliest            length   
##    <chr> <chr>     <int> <dttm>              <dttm>              <drtn>   
##  1 DDS   mutual      633 2020-11-16 00:00:00 2015-11-11 00:00:00 1832 days
##  2 IIP   mutual      636 2020-11-16 00:00:00 2015-11-11 00:00:00 1832 days
##  3 IPC   mutual      637 2020-11-16 00:00:00 2015-11-11 00:00:00 1832 days
##  4 IPK   mutual      637 2020-11-16 00:00:00 2015-11-11 00:00:00 1832 days
##  5 IPO   mutual      637 2020-11-16 00:00:00 2015-11-11 00:00:00 1832 days
##  6 IPR   mutual      637 2020-11-16 00:00:00 2015-11-11 00:00:00 1832 days
##  7 IPU   mutual      637 2020-11-16 00:00:00 2015-11-11 00:00:00 1832 days
##  8 ISS   mutual      637 2020-11-16 00:00:00 2015-11-11 00:00:00 1832 days
##  9 IYR   mutual      638 2020-11-16 00:00:00 2015-11-11 00:00:00 1832 days
## 10 AAK   mutual     1262 2020-11-16 00:00:00 2015-11-09 00:00:00 1834 days
## # ... with 437 more rows

813 funds have at least 1 calendar years of data coverage(starting from 2019-11-15 or earlier)

df_all %>% group_by(code) %>% summarise(count=n(), latest=max(date), earliest=min(date), length=max(date)-min(date))%>%arrange((code)) %>% filter(earliest<=ymd("2019-11-15"))

## # A tibble: 813 x 5
##    code  count latest              earliest            length   
##    <chr> <int> <dttm>              <dttm>              <drtn>   
##  1 AAJ     717 2020-11-16 00:00:00 2018-01-04 00:00:00 1047 days
##  2 AAK    1262 2020-11-16 00:00:00 2015-11-09 00:00:00 1834 days
##  3 AAL    1262 2020-11-16 00:00:00 2015-11-09 00:00:00 1834 days
##  4 AAS    1262 2020-11-16 00:00:00 2015-11-09 00:00:00 1834 days
##  5 AAV    1261 2020-11-16 00:00:00 2015-11-09 00:00:00 1834 days
##  6 ABE    1262 2020-11-16 00:00:00 2015-11-09 00:00:00 1834 days
##  7 ABU    1262 2020-11-16 00:00:00 2015-11-09 00:00:00 1834 days
##  8 ACC    1038 2020-11-16 00:00:00 2016-09-29 00:00:00 1509 days
##  9 ACD    1262 2020-11-16 00:00:00 2015-11-09 00:00:00 1834 days
## 10 ACK    1262 2020-11-16 00:00:00 2015-11-09 00:00:00 1834 days
## # ... with 803 more rows

2.2 Daily Price Change

The df_plot_price dataset provides daily price change and standard deviation of the last 1 year of data. We kept only the funds which have at least 1 year of price data.

df_plot_price=df_all%>%group_by(code,fund_type,category,company_name)%>%arrange(code,date)%>%mutate(previousday=lag(price,n=1), daily_price_change=price/previousday-1)%>%filter(date>=ymd("20191115"))%>%summarise(avg_daily_change=mean(daily_price_change, na.rm = TRUE), stdev=sd(daily_price_change, na.rm = TRUE),earliest=min(date), count=n())%>%arrange(count)%>%filter(earliest<=ymd("20191118"))
df_plot_price%>%arrange(count)

## # A tibble: 812 x 8
## # Groups:   code, fund_type, category [812]
##    code  fund_type category company_name avg_daily_change   stdev
##    <chr> <chr>     <chr>    <chr>                   <dbl>   <dbl>
##  1 ATJ   mutual    Hedge U~ AZIMUT PORT~        -0.000400 0.0150 
##  2 AJE   mutual    Hedge U~ AK PORTFOY ~         0.00113  0.00712
##  3 USY   mutual    Hedge U~ UNLU PORTFO~         0.000436 0.00741
##  4 ACN   mutual    Hedge U~ ACTUS PORTF~         0.000737 0.00719
##  5 ACU   mutual    Hedge U~ ACTUS PORTF~         0.00162  0.00786
##  6 ACZ   mutual    Hedge U~ ACTUS PORTF~         0.000854 0.00596
##  7 KTS   mutual    Hedge U~ KT PORTFOY ~         0.000352 0.00129
##  8 IPF   mutual    Hedge U~ PERFORM POR~         0.000476 0.00224
##  9 IPP   mutual    Hedge U~ PERFORM POR~         0.00183  0.0128 
## 10 PPD   mutual    Hedge U~ PERFORM POR~         0.000869 0.00723
## # ... with 802 more rows, and 2 more variables: earliest <dttm>, count <int>

2.3 Annual Price Change

The df_price_change dataset provides annual price change (between 2019-11-15 and 2020-11-16)

df_price_change=df_all%>%filter(date==ymd("2019-11-15")|date==ymd("2020-11-16"))%>%group_by(code,fund_type,category,company_name)%>%arrange(code,date)%>%mutate(previous_price=lag(price),annual_change=price/previous_price-1)%>%relocate(annual_change)%>%filter(!is.na(annual_change))%>%select(-previous_price)
df_price_change

## # A tibble: 806 x 41
## # Groups:   code, fund_type, category, company_name [806]
##    annual_change OKS   participation contribution date                code 
##            <dbl> <lgl> <lgl>         <lgl>        <dttm>              <chr>
##  1        0.120  TRUE  FALSE         FALSE        2020-11-16 00:00:00 AAJ  
##  2        0.221  FALSE FALSE         FALSE        2020-11-16 00:00:00 AAK  
##  3        0.0953 FALSE FALSE         FALSE        2020-11-16 00:00:00 AAL  
##  4        0.301  FALSE FALSE         FALSE        2020-11-16 00:00:00 AAS  
##  5        0.432  FALSE FALSE         FALSE        2020-11-16 00:00:00 AAV  
##  6        0.209  FALSE FALSE         FALSE        2020-11-16 00:00:00 ABE  
##  7        0.0862 FALSE FALSE         FALSE        2020-11-16 00:00:00 ABU  
##  8        0.339  FALSE FALSE         FALSE        2020-11-16 00:00:00 ACC  
##  9        0.338  FALSE FALSE         FALSE        2020-11-16 00:00:00 ACD  
## 10        0.305  FALSE FALSE         FALSE        2020-11-16 00:00:00 ACK  
## # ... with 796 more rows, and 35 more variables: fund_type <chr>,
## #   category <chr>, name <chr>, price <dbl>, shares <dbl>, people <dbl>,
## #   total_value <dbl>, p_Bank_Bills <dbl>, p_Other <dbl>,
## #   p_FX_Payable_Bills <dbl>, p_Government_Bond <dbl>,
## #   p_Foreign_Currency_Bills <dbl>, p_Eurobonds <dbl>,
## #   p_Commercial_Paper <dbl>, p_Fund_Participation_Certificate <dbl>,
## #   p_Real_Estate_Certificate <dbl>, p_Treasury_Bill <dbl>, p_Stock <dbl>,
## #   p_Government_Bonds_and_Bills_FX <dbl>, p_Participation_Account <dbl>,
## #   p_Government_Lease_Certificates <dbl>, p_Precious_Metals <dbl>,
…
4.1 Most Valued 40 Funds

order_price_best = df_3 %>%
  arrange(desc(change_price_percentage)) %>%
  select(fund_type, category, code, name, previous_price, price, change_price_percentage)
best_price_funds=order_price_best[1:40, ]
best_price_funds

## # A tibble: 40 x 7
## # Groups:   code, name [40]
##    fund_type category  code  name        previous_price   price change_price_pe~
##    <chr>     <chr>     <chr> <chr>                <dbl>   <dbl>            <dbl>
##  1 mutual    Hedge Um~ HDH   HEDEF PORT~       1.12     1.28e+1            1042.
##  2 mutual    Hedge Um~ IBG   AZIMUT PYS~       0.0400   2.17e-1             442.
##  3 mutual    Hedge Um~ HPF   HEDEF PORT~       1.25     6.66e+0             435.
##  4 mutual    Hedge Um~ FYA   ISTANBUL P~       0.000723 2.03e-3             181.
##  5 mutual    Stock Um~ TTE   IS PORTFOY~       0.0505   1.13e-1             124.
##  6 mutual    Hedge Um~ IAR   ISTANBUL P~       1.63     3.62e+0             122.
##  7 pension   Stock Fu~ KEH   KATILIM EM~       0.0180   3.91e-2             117.
##  8 pension   Stock Fu~ AGH   BEREKET EM~       0.0257   5.57e-2             116.
##  9 mutual    Hedge Um~ DPU   DENIZ PORF~       6.30     1.32e+1             110.
## 10 mutual    Stock Um~ TKF   TACIRLER P~       2.73     5.72e+0             110.
## # ... with 30 more rows
…
1

Variable Umbrella Fund

1

4.2 Least Valued / Depreciated 40 Funds

order_price_worst = df_3 %>%
  arrange(change_price_percentage) %>%
  select(fund_type, category, code, name, previous_price, price, change_price_percentage)
worst_price_funds=order_price_worst[1:40, ]
worst_price_funds

## # A tibble: 40 x 7
## # Groups:   code, name [40]
##    fund_type category   code  name       previous_price   price change_price_pe~
##    <chr>     <chr>      <chr> <chr>               <dbl>   <dbl>            <dbl>
##  1 mutual    Hedge Umb~ KOP   QINVEST P~         1.50   0.860             -42.7 
##  2 mutual    Fund Of F~ AES   AK PORTFO~         0.0151 0.00888           -41.2 
##  3 mutual    Hedge Umb~ ATJ   AZIMUT PO~         1.19   1.06              -10.5 
##  4 mutual    Hedge Umb~ AVC   ATA PORTF~         0.957  0.887              -7.35
##  5 mutual    Hedge Umb~ IBE   ISTANBUL ~         1.07   1                  -6.86
##  6 mutual    Hedge Umb~ OSH   OSMANLI P~         0.0277 0.0258             -6.58
##  7 mutual    Hedge Umb~ KSY   YAPI KRED~         1.01   0.986              -2.48
##  8 mutual    Stock Umb~ TAU   IS PORTFO~         0.0527 0.0517             -1.94
##  9 mutual    Stock Umb~ ADP   AK PORTFO~         0.104  0.102              -1.33
## 10 mutual    Hedge Umb~ STZ   STRATEJI ~         0.927  0.945               1.89
## # ... with 30 more rows
…
